White Blood Cell Classification
…
# Rename differently the cropped cells from the same image
# This step is essential when we woulf join labels with annotations
WBC_seprate_multiple_label <-
WBC_seprate_multiple_label %>% group_by(file_name) %>%
       mutate(new_file_name = if(n( ) > 1) {paste0(file_name,"_" , row_number( ))} 
                             else {paste0(file_name)})

WBC_seprate_multiple_label

## # A tibble: 426 x 4
## # Groups:   file_name [411]
##    file_name        Image Category   new_file_name   
##    <chr>            <int> <chr>      <chr>           
##  1 BloodImage_00000     0 NEUTROPHIL BloodImage_00000
##  2 BloodImage_00001     1 NEUTROPHIL BloodImage_00001
##  3 BloodImage_00002     2 NEUTROPHIL BloodImage_00002
##  4 BloodImage_00003     3 NEUTROPHIL BloodImage_00003
##  5 BloodImage_00004     4 NEUTROPHIL BloodImage_00004
##  6 BloodImage_00005     5 NEUTROPHIL BloodImage_00005
##  7 BloodImage_00006     6 NEUTROPHIL BloodImage_00006
##  8 BloodImage_00007     7 NEUTROPHIL BloodImage_00007
##  9 BloodImage_00008     8 BASOPHIL   BloodImage_00008
## 10 BloodImage_00009     9 EOSINOPHIL BloodImage_00009
## # … with 416 more rows
…
Mainly we have one WBC for each image BUT some image have two type of WBC. for example image 10 has two WCB (BloodImage_00010.xml).

In the next step we need to add annotation/type of each WBC. The annotation is in the dataframe named WBC_seprate_multiple_label (see above).

1.5.5 Explore only image with multiple WBC

## Explore only image with multiple WBC
only_image_multiple_WBC <- 
  WBC_seprate_multiple_label[duplicated(WBC_seprate_multiple_label$file_name, fromLast = FALSE) |
                               duplicated(WBC_seprate_multiple_label$file_name, fromLast = TRUE),] 

only_image_multiple_WBC

## # A tibble: 30 x 4
## # Groups:   file_name [15]
##    file_name        Image Category   new_file_name     
##    <chr>            <int> <chr>      <chr>             
##  1 BloodImage_00010    10 NEUTROPHIL BloodImage_00010_1
##  2 BloodImage_00010    10 EOSINOPHIL BloodImage_00010_2
##  3 BloodImage_00031    31 NEUTROPHIL BloodImage_00031_1
##  4 BloodImage_00031    31 NEUTROPHIL BloodImage_00031_2
##  5 BloodImage_00034    34 NEUTROPHIL BloodImage_00034_1
##  6 BloodImage_00034    34 BASOPHIL   BloodImage_00034_2
##  7 BloodImage_00043    43 NEUTROPHIL BloodImage_00043_1
##  8 BloodImage_00043    43 MONOCYTE   BloodImage_00043_2
##  9 BloodImage_00044    44 EOSINOPHIL BloodImage_00044_1
## 10 BloodImage_00044    44 EOSINOPHIL BloodImage_00044_2
## # … with 20 more rows
…
