Restaurant EDA
…
bar <- sample_submission %>%
  tidyr::separate(id, c("foo","bar", "date"), sep = "_") %>%
  mutate(date = ymd(date)) %>%
  distinct(date) %>%
  mutate(dset = "test")

air_visit_train <- air_visit_train %>%
  bind_rows(bar)

year(air_visit_train$date) <- 2017

air_visit_train %>%
  filter(!is.na(date)) 

## # A tibble: 516 x 2
##    date       dset 
##    <date>     <chr>
##  1 2017-01-13 train
##  2 2017-01-14 train
##  3 2017-01-15 train
##  4 2017-01-16 train
##  5 2017-01-18 train
##  6 2017-01-19 train
##  7 2017-01-20 train
##  8 2017-01-21 train
##  9 2017-01-22 train
## 10 2017-01-23 train
## # ... with 506 more rows
…
hpg_reserve %>%
  mutate(reserve_date = date(reserve_datetime),
         reserve_hour = hour(reserve_datetime),
         reserve_wday = wday(reserve_datetime, label = TRUE),
         reserve_wday = forcats::fct_relevel(reserve_wday, c("Mon", "Tue", "Wed", "Thu", "Fri", "Sat", "Sun")),
         visit_date = date(visit_datetime),
         visit_hour = hour(visit_datetime),
         visit_wday = wday(visit_datetime, label = TRUE),
         visit_wday = forcats::fct_relevel(visit_wday, c("Mon", "Tue", "Wed", "Thu", "Fri", "Sat", "Sun")),
         diff_hour = time_length(visit_datetime - reserve_datetime, unit = "hour"),
         diff_day = time_length(visit_datetime - reserve_datetime, unit = "day"))

## # A tibble: 2,000,320 x 12
##    hpg_store_id visit_datetime      reserve_datetime    reserve_visitors
##    <chr>        <dttm>              <dttm>                         <int>
##  1 hpg_c63f6f4… 2016-01-01 11:00:00 2016-01-01 09:00:00                1
##  2 hpg_dac7278… 2016-01-01 13:00:00 2016-01-01 06:00:00                3
##  3 hpg_c8e24dc… 2016-01-01 16:00:00 2016-01-01 14:00:00                2
##  4 hpg_24bb207… 2016-01-01 17:00:00 2016-01-01 11:00:00                5
##  5 hpg_25291c5… 2016-01-01 17:00:00 2016-01-01 03:00:00               13
##  6 hpg_28bdf7a… 2016-01-01 17:00:00 2016-01-01 15:00:00                2
##  7 hpg_2a01a04… 2016-01-01 17:00:00 2016-01-01 17:00:00                2
##  8 hpg_2a84dd9… 2016-01-01 17:00:00 2016-01-01 15:00:00                2
##  9 hpg_2ad1798… 2016-01-01 17:00:00 2016-01-01 13:00:00                2
## 10 hpg_2c1d989… 2016-01-01 17:00:00 2016-01-01 15:00:00                6
## # ... with 2,000,310 more rows, and 8 more variables: reserve_date <date>,
## #   reserve_hour <int>, reserve_wday <ord>, visit_date <date>,
## #   visit_hour <int>, visit_wday <ord>, diff_hour <dbl>, diff_day <dbl>
…
air_store_info %>%
  mutate(dist_group = as.integer(case_when(
    dist < 80  ~ 1,
    dist < 300 ~ 2, 
    dist < 500 ~ 3,
    dist < 750 ~ 4,
    TRUE ~ 5 ))) %>%
  left_join(air_count, by = "air_area_name") %>%
  separate(air_area_name, c("preferture"), sep = " ", remove = FALSE)

## Warning: Expected 1 pieces. Additional pieces discarded in 829 rows [1, 2,
## 3, 4, 5, 6, 7, 8, 9, 10, 11, 12, 13, 14, 15, 16, 17, 18, 19, 20, ...].

## # A tibble: 829 x 9
##    air_store_id air_genre_name air_area_name preferture latitude longitude
##    <chr>        <fct>          <fct>         <chr>         <dbl>     <dbl>
##  1 air_0f0cdee… Italian/French Hyōgo-ken Kō… Hyōgo-ken      34.7      135.
##  2 air_7cc17a3… Italian/French Hyōgo-ken Kō… Hyōgo-ken      34.7      135.
##  3 air_fee8dcf… Italian/French Hyōgo-ken Kō… Hyōgo-ken      34.7      135.
##  4 air_a17f077… Italian/French Hyōgo-ken Kō… Hyōgo-ken      34.7      135.
##  5 air_83db5af… Italian/French Tōkyō-to Min… Tōkyō-to       35.7      140.
##  6 air_99c3eae… Italian/French Tōkyō-to Min… Tōkyō-to       35.7      140.
##  7 air_f183a51… Italian/French Tōkyō-to Min… Tōkyō-to       35.7      140.
##  8 air_6b9fa44… Italian/French Tōkyō-to Min… Tōkyō-to       35.7      140.
##  9 air_0919d54… Italian/French Tōkyō-to Min… Tōkyō-to       35.7      140.
## 10 air_2c6c79d… Italian/French Tōkyō-to Min… Tōkyō-to       35.7      140.
## # ... with 819 more rows, and 3 more variables: dist <dbl>,
## #   dist_group <int>, air_count <int>
…
6 Time series parameters

air_visit %>%
  left_join(air_store_info, by = "air_store_id") %>%
  group_by(air_store_id, air_genre_name) %>%
  summarise(mean_log_visits = mean(log1p(visitors)),
            mean_log_visits = mean(log1p(visitors)),
            sd_log_visits = sd(log1p(visitors))) %>%
  ungroup()

## # A tibble: 829 x 4
##    air_store_id         air_genre_name mean_log_visits sd_log_visits
##    <chr>                <fct>                    <dbl>         <dbl>
##  1 air_00a91d42b08b08d9 Italian/French            3.17         0.577
##  2 air_0164b9927d20bcc3 Italian/French            2.12         0.685
##  3 air_0241aa3964b7f861 Izakaya                   2.24         0.565
##  4 air_0328696196e46f18 Dining bar                1.97         0.663
##  5 air_034a3d5b40d5b1b1 Cafe/Sweets               2.46         0.824
##  6 air_036d4f1ee7285390 Cafe/Sweets               3.02         0.535
##  7 air_0382c794b73b51ad Cafe/Sweets               3.01         0.767
##  8 air_03963426c9312048 Izakaya                   3.47         0.762
##  9 air_04341b588bde96cd Izakaya                   3.49         0.543
## 10 air_049f6d5b402a31b2 Japanese food             2.37         0.609
## # ... with 819 more rows
…
