Santandar Costumer Transaction Prediction by Keras
…
# Predicted Class Probability
keras_prob_vec  <- predict_proba(object = model_keras, x = as.matrix(x_test_2)) %>% as.vector()

10 Inspect Performance With Yardstick package

# Format test data and predictions for yardstick metrics
estimates_keras_tbl <- tibble(
  Truth      = as.factor(y_test_vec) %>% fct_recode(yes = "1", no = "0"),
  Estimate   = as.factor(keras_class_vec) %>% fct_recode(yes = "1", no = "0"),
  Class_prob = keras_prob_vec
)

estimates_keras_tbl

## # A tibble: 39,999 x 3
##    Truth Estimate Class_prob
##    <fct> <fct>         <dbl>
##  1 no    no          0.0519 
##  2 no    no          0.0200 
##  3 no    no          0.104  
##  4 no    no          0.0117 
##  5 no    no          0.110  
##  6 no    no          0.0592 
##  7 no    no          0.00751
##  8 no    no          0.0990 
##  9 no    no          0.427  
## 10 no    no          0.0269 
## # … with 39,989 more rows
…
