Abnormal transaction detection
…
1.4.2 Categorical variables

categorical_vars_stat <- inspect_cat(full)
categorical_vars <- categorical_vars_stat$col_name

categorical_vars_stat 

## # A tibble: 32 x 5
##    col_name     cnt common common_pcnt levels              
##    <chr>      <int> <chr>        <dbl> <list>              
##  1 card4          5 visa          65.6 <tibble [5 × 3]>    
##  2 card6          5 debit         75.2 <tibble [5 × 3]>    
##  3 DeviceInfo  2801 <NA>          73.9 <tibble [2,801 × 3]>
##  4 DeviceType     4 <NA>          73.9 <tibble [4 × 3]>    
##  5 id_12          3 <NA>          73.9 <tibble [3 × 3]>    
##  6 id_15          5 <NA>          73.9 <tibble [5 × 3]>    
##  7 id_16          4 <NA>          73.9 <tibble [4 × 3]>    
##  8 id_23          5 <NA>          73.9 <tibble [5 × 3]>    
##  9 id_27          4 <NA>          73.9 <tibble [4 × 3]>    
## 10 id_28          4 <NA>          73.9 <tibble [4 × 3]>    
## # … with 22 more rows
…
inspect_na(cards_df)

## # A tibble: 6 x 3
##   col_name   cnt  pcnt
##   <chr>    <int> <dbl>
## 1 card2       75  1.5 
## 2 card5        9  0.18
## 3 card1        0  0   
## 4 card3        0  0   
## 5 card4        0  0   
## 6 card6        0  0

inspect_na(ids_df)

## # A tibble: 40 x 3
##    col_name   cnt  pcnt
##    <chr>    <int> <dbl>
##  1 id_24     4968  99.4
##  2 id_07     4967  99.3
##  3 id_08     4967  99.3
##  4 id_21     4967  99.3
##  5 id_22     4967  99.3
##  6 id_25     4967  99.3
##  7 id_26     4967  99.3
##  8 id_18     4718  94.4
##  9 id_03     4578  91.6
## 10 id_04     4578  91.6
## # … with 30 more rows
…
